
digraph cast_of_characters {
    rankdir = LR;
    
    node[shape=rect,fontname="Liberation Sans",fontsize=12;];
    edge[ fontname = "Liberation Sans", fontsize = 10; ];
    rightclick[shape=point];
    subgraph cluster_setup {
        rootmenu[shape=tab];
        menuxml[shape=house,label="~/config/openbox/menu.xml"];
        {rank=same;rootmenu,menuxml};
    };

    subgraph cluster_obmek {
        obmek[shape=star,label="this executes the pmenu"];
        obmek -> configfiles[label="arguments specify ini files to read"];
        configfiles[shape=record,label="if no arguments | { ~/.pmenu.ini | ~/.config/openbox/pmenu.ini } | with arguments | { one | or more }"];
        pipemenu[shape=doublecircle];
        configfiles -> pipemenu[label="generate xml"];
        /* obmek->pipemenu; */
    {rank=same;{obmek,pipemenu}};
    };

    rightclick -> rootmenu[label="Right-click brings up the"];
    rootmenu -> menuxml[label="which reads"];
    menuxml -> obmek[label="&lt;menu ... command=\"pmenu [filename-args...]\"/&gt;"];
    
}

